<?xml version="1.0" encoding="UTF-8"?>
<CustomTab xmlns="http://soap.sforce.com/2006/04/metadata">
    <description>Created by Lightning App Builder</description>
    <flexiPage>Account_Details</flexiPage>
    <label>Account Details</label>
    <mobileReady>true</mobileReady>
    <motif>Custom9: Lightning</motif>
</CustomTab>
